%TF.GenerationSoftware,KiCad,Pcbnew,(6.0.7)*%
%TF.CreationDate,2022-10-20T10:41:07-07:00*%
%TF.ProjectId,usb-c-pogo-adapter,7573622d-632d-4706-9f67-6f2d61646170,rev?*%
%TF.SameCoordinates,Original*%
%TF.FileFunction,Drillmap*%
%TF.FilePolarity,Positive*%
%FSLAX45Y45*%
G04 Gerber Fmt 4.5, Leading zero omitted, Abs format (unit mm)*
G04 Created by KiCad (PCBNEW (6.0.7)) date 2022-10-20 10:41:07*
%MOMM*%
%LPD*%
G01*
G04 APERTURE LIST*
%ADD10C,0.100000*%
%ADD11C,0.200000*%
%ADD12C,0.081000*%
G04 APERTURE END LIST*
D10*
X8331200Y-4673600D02*
X7442200Y-4673600D01*
X7442200Y-4673600D02*
X7442200Y-8864600D01*
X7442200Y-8864600D02*
X8331200Y-8864600D01*
X8331200Y-8864600D02*
X8331200Y-4673600D01*
D11*
D12*
X7579500Y-7579500D02*
X7660500Y-7660500D01*
X7660500Y-7579500D02*
X7579500Y-7660500D01*
X7579500Y-7833500D02*
X7660500Y-7914500D01*
X7660500Y-7833500D02*
X7579500Y-7914500D01*
X7579500Y-8087500D02*
X7660500Y-8168500D01*
X7660500Y-8087500D02*
X7579500Y-8168500D01*
X7579500Y-8341500D02*
X7660500Y-8422500D01*
X7660500Y-8341500D02*
X7579500Y-8422500D01*
X7579500Y-8595500D02*
X7660500Y-8676500D01*
X7660500Y-8595500D02*
X7579500Y-8676500D01*
D10*
X7873200Y-4902200D02*
G75*
G03*
X7873200Y-4902200I-50000J0D01*
G01*
X7873200Y-5156200D02*
G75*
G03*
X7873200Y-5156200I-50000J0D01*
G01*
X7873200Y-5410200D02*
G75*
G03*
X7873200Y-5410200I-50000J0D01*
G01*
X7873200Y-5664200D02*
G75*
G03*
X7873200Y-5664200I-50000J0D01*
G01*
X7873200Y-5918200D02*
G75*
G03*
X7873200Y-5918200I-50000J0D01*
G01*
X7873200Y-6172200D02*
G75*
G03*
X7873200Y-6172200I-50000J0D01*
G01*
X7873200Y-6426200D02*
G75*
G03*
X7873200Y-6426200I-50000J0D01*
G01*
X7873200Y-6680200D02*
G75*
G03*
X7873200Y-6680200I-50000J0D01*
G01*
D11*
X7694819Y-9180076D02*
X7694819Y-8980076D01*
X7742438Y-8980076D01*
X7771009Y-8989600D01*
X7790057Y-9008648D01*
X7799581Y-9027695D01*
X7809105Y-9065790D01*
X7809105Y-9094362D01*
X7799581Y-9132457D01*
X7790057Y-9151505D01*
X7771009Y-9170552D01*
X7742438Y-9180076D01*
X7694819Y-9180076D01*
X7894819Y-9180076D02*
X7894819Y-9046743D01*
X7894819Y-9084838D02*
X7904343Y-9065790D01*
X7913867Y-9056267D01*
X7932914Y-9046743D01*
X7951962Y-9046743D01*
X8018628Y-9180076D02*
X8018628Y-9046743D01*
X8018628Y-8980076D02*
X8009105Y-8989600D01*
X8018628Y-8999124D01*
X8028152Y-8989600D01*
X8018628Y-8980076D01*
X8018628Y-8999124D01*
X8142438Y-9180076D02*
X8123390Y-9170552D01*
X8113867Y-9151505D01*
X8113867Y-8980076D01*
X8247200Y-9180076D02*
X8228152Y-9170552D01*
X8218628Y-9151505D01*
X8218628Y-8980076D01*
X8475771Y-9180076D02*
X8475771Y-8980076D01*
X8542438Y-9122933D01*
X8609105Y-8980076D01*
X8609105Y-9180076D01*
X8790057Y-9180076D02*
X8790057Y-9075314D01*
X8780533Y-9056267D01*
X8761486Y-9046743D01*
X8723390Y-9046743D01*
X8704343Y-9056267D01*
X8790057Y-9170552D02*
X8771010Y-9180076D01*
X8723390Y-9180076D01*
X8704343Y-9170552D01*
X8694819Y-9151505D01*
X8694819Y-9132457D01*
X8704343Y-9113410D01*
X8723390Y-9103886D01*
X8771010Y-9103886D01*
X8790057Y-9094362D01*
X8885295Y-9046743D02*
X8885295Y-9246743D01*
X8885295Y-9056267D02*
X8904343Y-9046743D01*
X8942438Y-9046743D01*
X8961486Y-9056267D01*
X8971010Y-9065790D01*
X8980533Y-9084838D01*
X8980533Y-9141981D01*
X8971010Y-9161029D01*
X8961486Y-9170552D01*
X8942438Y-9180076D01*
X8904343Y-9180076D01*
X8885295Y-9170552D01*
X9066248Y-9161029D02*
X9075771Y-9170552D01*
X9066248Y-9180076D01*
X9056724Y-9170552D01*
X9066248Y-9161029D01*
X9066248Y-9180076D01*
X9066248Y-9056267D02*
X9075771Y-9065790D01*
X9066248Y-9075314D01*
X9056724Y-9065790D01*
X9066248Y-9056267D01*
X9066248Y-9075314D01*
D12*
X7356200Y-9469100D02*
X7437200Y-9550100D01*
X7437200Y-9469100D02*
X7356200Y-9550100D01*
D11*
X7732914Y-9400076D02*
X7751962Y-9400076D01*
X7771009Y-9409600D01*
X7780533Y-9419124D01*
X7790057Y-9438171D01*
X7799581Y-9476267D01*
X7799581Y-9523886D01*
X7790057Y-9561981D01*
X7780533Y-9581029D01*
X7771009Y-9590552D01*
X7751962Y-9600076D01*
X7732914Y-9600076D01*
X7713867Y-9590552D01*
X7704343Y-9581029D01*
X7694819Y-9561981D01*
X7685295Y-9523886D01*
X7685295Y-9476267D01*
X7694819Y-9438171D01*
X7704343Y-9419124D01*
X7713867Y-9409600D01*
X7732914Y-9400076D01*
X7885295Y-9581029D02*
X7894819Y-9590552D01*
X7885295Y-9600076D01*
X7875771Y-9590552D01*
X7885295Y-9581029D01*
X7885295Y-9600076D01*
X8009105Y-9485790D02*
X7990057Y-9476267D01*
X7980533Y-9466743D01*
X7971009Y-9447695D01*
X7971009Y-9438171D01*
X7980533Y-9419124D01*
X7990057Y-9409600D01*
X8009105Y-9400076D01*
X8047200Y-9400076D01*
X8066248Y-9409600D01*
X8075771Y-9419124D01*
X8085295Y-9438171D01*
X8085295Y-9447695D01*
X8075771Y-9466743D01*
X8066248Y-9476267D01*
X8047200Y-9485790D01*
X8009105Y-9485790D01*
X7990057Y-9495314D01*
X7980533Y-9504838D01*
X7971009Y-9523886D01*
X7971009Y-9561981D01*
X7980533Y-9581029D01*
X7990057Y-9590552D01*
X8009105Y-9600076D01*
X8047200Y-9600076D01*
X8066248Y-9590552D01*
X8075771Y-9581029D01*
X8085295Y-9561981D01*
X8085295Y-9523886D01*
X8075771Y-9504838D01*
X8066248Y-9495314D01*
X8047200Y-9485790D01*
X8275771Y-9600076D02*
X8161486Y-9600076D01*
X8218628Y-9600076D02*
X8218628Y-9400076D01*
X8199581Y-9428648D01*
X8180533Y-9447695D01*
X8161486Y-9457219D01*
X8399581Y-9400076D02*
X8418629Y-9400076D01*
X8437676Y-9409600D01*
X8447200Y-9419124D01*
X8456724Y-9438171D01*
X8466248Y-9476267D01*
X8466248Y-9523886D01*
X8456724Y-9561981D01*
X8447200Y-9581029D01*
X8437676Y-9590552D01*
X8418629Y-9600076D01*
X8399581Y-9600076D01*
X8380533Y-9590552D01*
X8371009Y-9581029D01*
X8361486Y-9561981D01*
X8351962Y-9523886D01*
X8351962Y-9476267D01*
X8361486Y-9438171D01*
X8371009Y-9419124D01*
X8380533Y-9409600D01*
X8399581Y-9400076D01*
X8551962Y-9600076D02*
X8551962Y-9466743D01*
X8551962Y-9485790D02*
X8561486Y-9476267D01*
X8580533Y-9466743D01*
X8609105Y-9466743D01*
X8628152Y-9476267D01*
X8637676Y-9495314D01*
X8637676Y-9600076D01*
X8637676Y-9495314D02*
X8647200Y-9476267D01*
X8666248Y-9466743D01*
X8694819Y-9466743D01*
X8713867Y-9476267D01*
X8723390Y-9495314D01*
X8723390Y-9600076D01*
X8818629Y-9600076D02*
X8818629Y-9466743D01*
X8818629Y-9485790D02*
X8828152Y-9476267D01*
X8847200Y-9466743D01*
X8875771Y-9466743D01*
X8894819Y-9476267D01*
X8904343Y-9495314D01*
X8904343Y-9600076D01*
X8904343Y-9495314D02*
X8913867Y-9476267D01*
X8932914Y-9466743D01*
X8961486Y-9466743D01*
X8980533Y-9476267D01*
X8990057Y-9495314D01*
X8990057Y-9600076D01*
X9380533Y-9390552D02*
X9209105Y-9647695D01*
X9637676Y-9400076D02*
X9656724Y-9400076D01*
X9675771Y-9409600D01*
X9685295Y-9419124D01*
X9694819Y-9438171D01*
X9704343Y-9476267D01*
X9704343Y-9523886D01*
X9694819Y-9561981D01*
X9685295Y-9581029D01*
X9675771Y-9590552D01*
X9656724Y-9600076D01*
X9637676Y-9600076D01*
X9618629Y-9590552D01*
X9609105Y-9581029D01*
X9599581Y-9561981D01*
X9590057Y-9523886D01*
X9590057Y-9476267D01*
X9599581Y-9438171D01*
X9609105Y-9419124D01*
X9618629Y-9409600D01*
X9637676Y-9400076D01*
X9790057Y-9581029D02*
X9799581Y-9590552D01*
X9790057Y-9600076D01*
X9780533Y-9590552D01*
X9790057Y-9581029D01*
X9790057Y-9600076D01*
X9923390Y-9400076D02*
X9942438Y-9400076D01*
X9961486Y-9409600D01*
X9971010Y-9419124D01*
X9980533Y-9438171D01*
X9990057Y-9476267D01*
X9990057Y-9523886D01*
X9980533Y-9561981D01*
X9971010Y-9581029D01*
X9961486Y-9590552D01*
X9942438Y-9600076D01*
X9923390Y-9600076D01*
X9904343Y-9590552D01*
X9894819Y-9581029D01*
X9885295Y-9561981D01*
X9875771Y-9523886D01*
X9875771Y-9476267D01*
X9885295Y-9438171D01*
X9894819Y-9419124D01*
X9904343Y-9409600D01*
X9923390Y-9400076D01*
X10056724Y-9400076D02*
X10180533Y-9400076D01*
X10113867Y-9476267D01*
X10142438Y-9476267D01*
X10161486Y-9485790D01*
X10171010Y-9495314D01*
X10180533Y-9514362D01*
X10180533Y-9561981D01*
X10171010Y-9581029D01*
X10161486Y-9590552D01*
X10142438Y-9600076D01*
X10085295Y-9600076D01*
X10066248Y-9590552D01*
X10056724Y-9581029D01*
X10371010Y-9600076D02*
X10256724Y-9600076D01*
X10313867Y-9600076D02*
X10313867Y-9400076D01*
X10294819Y-9428648D01*
X10275771Y-9447695D01*
X10256724Y-9457219D01*
X10466248Y-9600076D02*
X10504343Y-9600076D01*
X10523390Y-9590552D01*
X10532914Y-9581029D01*
X10551962Y-9552457D01*
X10561486Y-9514362D01*
X10561486Y-9438171D01*
X10551962Y-9419124D01*
X10542438Y-9409600D01*
X10523390Y-9400076D01*
X10485295Y-9400076D01*
X10466248Y-9409600D01*
X10456724Y-9419124D01*
X10447200Y-9438171D01*
X10447200Y-9485790D01*
X10456724Y-9504838D01*
X10466248Y-9514362D01*
X10485295Y-9523886D01*
X10523390Y-9523886D01*
X10542438Y-9514362D01*
X10551962Y-9504838D01*
X10561486Y-9485790D01*
X10637676Y-9400076D02*
X10637676Y-9438171D01*
X10713867Y-9400076D02*
X10713867Y-9438171D01*
X11009105Y-9676267D02*
X10999581Y-9666743D01*
X10980533Y-9638171D01*
X10971010Y-9619124D01*
X10961486Y-9590552D01*
X10951962Y-9542933D01*
X10951962Y-9504838D01*
X10961486Y-9457219D01*
X10971010Y-9428648D01*
X10980533Y-9409600D01*
X10999581Y-9381029D01*
X11009105Y-9371505D01*
X11180533Y-9400076D02*
X11085295Y-9400076D01*
X11075771Y-9495314D01*
X11085295Y-9485790D01*
X11104343Y-9476267D01*
X11151962Y-9476267D01*
X11171010Y-9485790D01*
X11180533Y-9495314D01*
X11190057Y-9514362D01*
X11190057Y-9561981D01*
X11180533Y-9581029D01*
X11171010Y-9590552D01*
X11151962Y-9600076D01*
X11104343Y-9600076D01*
X11085295Y-9590552D01*
X11075771Y-9581029D01*
X11428152Y-9600076D02*
X11428152Y-9400076D01*
X11513867Y-9600076D02*
X11513867Y-9495314D01*
X11504343Y-9476267D01*
X11485295Y-9466743D01*
X11456724Y-9466743D01*
X11437676Y-9476267D01*
X11428152Y-9485790D01*
X11637676Y-9600076D02*
X11618628Y-9590552D01*
X11609105Y-9581029D01*
X11599581Y-9561981D01*
X11599581Y-9504838D01*
X11609105Y-9485790D01*
X11618628Y-9476267D01*
X11637676Y-9466743D01*
X11666248Y-9466743D01*
X11685295Y-9476267D01*
X11694819Y-9485790D01*
X11704343Y-9504838D01*
X11704343Y-9561981D01*
X11694819Y-9581029D01*
X11685295Y-9590552D01*
X11666248Y-9600076D01*
X11637676Y-9600076D01*
X11818628Y-9600076D02*
X11799581Y-9590552D01*
X11790057Y-9571505D01*
X11790057Y-9400076D01*
X11971009Y-9590552D02*
X11951962Y-9600076D01*
X11913867Y-9600076D01*
X11894819Y-9590552D01*
X11885295Y-9571505D01*
X11885295Y-9495314D01*
X11894819Y-9476267D01*
X11913867Y-9466743D01*
X11951962Y-9466743D01*
X11971009Y-9476267D01*
X11980533Y-9495314D01*
X11980533Y-9514362D01*
X11885295Y-9533410D01*
X12056724Y-9590552D02*
X12075771Y-9600076D01*
X12113867Y-9600076D01*
X12132914Y-9590552D01*
X12142438Y-9571505D01*
X12142438Y-9561981D01*
X12132914Y-9542933D01*
X12113867Y-9533410D01*
X12085295Y-9533410D01*
X12066248Y-9523886D01*
X12056724Y-9504838D01*
X12056724Y-9495314D01*
X12066248Y-9476267D01*
X12085295Y-9466743D01*
X12113867Y-9466743D01*
X12132914Y-9476267D01*
X12209105Y-9676267D02*
X12218628Y-9666743D01*
X12237676Y-9638171D01*
X12247200Y-9619124D01*
X12256724Y-9590552D01*
X12266248Y-9542933D01*
X12266248Y-9504838D01*
X12256724Y-9457219D01*
X12247200Y-9428648D01*
X12237676Y-9409600D01*
X12218628Y-9381029D01*
X12209105Y-9371505D01*
D10*
X7437200Y-9773600D02*
G75*
G03*
X7437200Y-9773600I-50000J0D01*
G01*
D11*
X7799581Y-9864076D02*
X7685295Y-9864076D01*
X7742438Y-9864076D02*
X7742438Y-9664076D01*
X7723390Y-9692648D01*
X7704343Y-9711695D01*
X7685295Y-9721219D01*
X7885295Y-9845029D02*
X7894819Y-9854552D01*
X7885295Y-9864076D01*
X7875771Y-9854552D01*
X7885295Y-9845029D01*
X7885295Y-9864076D01*
X8018628Y-9664076D02*
X8037676Y-9664076D01*
X8056724Y-9673600D01*
X8066248Y-9683124D01*
X8075771Y-9702171D01*
X8085295Y-9740267D01*
X8085295Y-9787886D01*
X8075771Y-9825981D01*
X8066248Y-9845029D01*
X8056724Y-9854552D01*
X8037676Y-9864076D01*
X8018628Y-9864076D01*
X7999581Y-9854552D01*
X7990057Y-9845029D01*
X7980533Y-9825981D01*
X7971009Y-9787886D01*
X7971009Y-9740267D01*
X7980533Y-9702171D01*
X7990057Y-9683124D01*
X7999581Y-9673600D01*
X8018628Y-9664076D01*
X8209105Y-9664076D02*
X8228152Y-9664076D01*
X8247200Y-9673600D01*
X8256724Y-9683124D01*
X8266248Y-9702171D01*
X8275771Y-9740267D01*
X8275771Y-9787886D01*
X8266248Y-9825981D01*
X8256724Y-9845029D01*
X8247200Y-9854552D01*
X8228152Y-9864076D01*
X8209105Y-9864076D01*
X8190057Y-9854552D01*
X8180533Y-9845029D01*
X8171009Y-9825981D01*
X8161486Y-9787886D01*
X8161486Y-9740267D01*
X8171009Y-9702171D01*
X8180533Y-9683124D01*
X8190057Y-9673600D01*
X8209105Y-9664076D01*
X8399581Y-9664076D02*
X8418629Y-9664076D01*
X8437676Y-9673600D01*
X8447200Y-9683124D01*
X8456724Y-9702171D01*
X8466248Y-9740267D01*
X8466248Y-9787886D01*
X8456724Y-9825981D01*
X8447200Y-9845029D01*
X8437676Y-9854552D01*
X8418629Y-9864076D01*
X8399581Y-9864076D01*
X8380533Y-9854552D01*
X8371009Y-9845029D01*
X8361486Y-9825981D01*
X8351962Y-9787886D01*
X8351962Y-9740267D01*
X8361486Y-9702171D01*
X8371009Y-9683124D01*
X8380533Y-9673600D01*
X8399581Y-9664076D01*
X8551962Y-9864076D02*
X8551962Y-9730743D01*
X8551962Y-9749790D02*
X8561486Y-9740267D01*
X8580533Y-9730743D01*
X8609105Y-9730743D01*
X8628152Y-9740267D01*
X8637676Y-9759314D01*
X8637676Y-9864076D01*
X8637676Y-9759314D02*
X8647200Y-9740267D01*
X8666248Y-9730743D01*
X8694819Y-9730743D01*
X8713867Y-9740267D01*
X8723390Y-9759314D01*
X8723390Y-9864076D01*
X8818629Y-9864076D02*
X8818629Y-9730743D01*
X8818629Y-9749790D02*
X8828152Y-9740267D01*
X8847200Y-9730743D01*
X8875771Y-9730743D01*
X8894819Y-9740267D01*
X8904343Y-9759314D01*
X8904343Y-9864076D01*
X8904343Y-9759314D02*
X8913867Y-9740267D01*
X8932914Y-9730743D01*
X8961486Y-9730743D01*
X8980533Y-9740267D01*
X8990057Y-9759314D01*
X8990057Y-9864076D01*
X9380533Y-9654552D02*
X9209105Y-9911695D01*
X9637676Y-9664076D02*
X9656724Y-9664076D01*
X9675771Y-9673600D01*
X9685295Y-9683124D01*
X9694819Y-9702171D01*
X9704343Y-9740267D01*
X9704343Y-9787886D01*
X9694819Y-9825981D01*
X9685295Y-9845029D01*
X9675771Y-9854552D01*
X9656724Y-9864076D01*
X9637676Y-9864076D01*
X9618629Y-9854552D01*
X9609105Y-9845029D01*
X9599581Y-9825981D01*
X9590057Y-9787886D01*
X9590057Y-9740267D01*
X9599581Y-9702171D01*
X9609105Y-9683124D01*
X9618629Y-9673600D01*
X9637676Y-9664076D01*
X9790057Y-9845029D02*
X9799581Y-9854552D01*
X9790057Y-9864076D01*
X9780533Y-9854552D01*
X9790057Y-9845029D01*
X9790057Y-9864076D01*
X9923390Y-9664076D02*
X9942438Y-9664076D01*
X9961486Y-9673600D01*
X9971010Y-9683124D01*
X9980533Y-9702171D01*
X9990057Y-9740267D01*
X9990057Y-9787886D01*
X9980533Y-9825981D01*
X9971010Y-9845029D01*
X9961486Y-9854552D01*
X9942438Y-9864076D01*
X9923390Y-9864076D01*
X9904343Y-9854552D01*
X9894819Y-9845029D01*
X9885295Y-9825981D01*
X9875771Y-9787886D01*
X9875771Y-9740267D01*
X9885295Y-9702171D01*
X9894819Y-9683124D01*
X9904343Y-9673600D01*
X9923390Y-9664076D01*
X10056724Y-9664076D02*
X10180533Y-9664076D01*
X10113867Y-9740267D01*
X10142438Y-9740267D01*
X10161486Y-9749790D01*
X10171010Y-9759314D01*
X10180533Y-9778362D01*
X10180533Y-9825981D01*
X10171010Y-9845029D01*
X10161486Y-9854552D01*
X10142438Y-9864076D01*
X10085295Y-9864076D01*
X10066248Y-9854552D01*
X10056724Y-9845029D01*
X10275771Y-9864076D02*
X10313867Y-9864076D01*
X10332914Y-9854552D01*
X10342438Y-9845029D01*
X10361486Y-9816457D01*
X10371010Y-9778362D01*
X10371010Y-9702171D01*
X10361486Y-9683124D01*
X10351962Y-9673600D01*
X10332914Y-9664076D01*
X10294819Y-9664076D01*
X10275771Y-9673600D01*
X10266248Y-9683124D01*
X10256724Y-9702171D01*
X10256724Y-9749790D01*
X10266248Y-9768838D01*
X10275771Y-9778362D01*
X10294819Y-9787886D01*
X10332914Y-9787886D01*
X10351962Y-9778362D01*
X10361486Y-9768838D01*
X10371010Y-9749790D01*
X10542438Y-9730743D02*
X10542438Y-9864076D01*
X10494819Y-9654552D02*
X10447200Y-9797410D01*
X10571010Y-9797410D01*
X10637676Y-9664076D02*
X10637676Y-9702171D01*
X10713867Y-9664076D02*
X10713867Y-9702171D01*
X11009105Y-9940267D02*
X10999581Y-9930743D01*
X10980533Y-9902171D01*
X10971010Y-9883124D01*
X10961486Y-9854552D01*
X10951962Y-9806933D01*
X10951962Y-9768838D01*
X10961486Y-9721219D01*
X10971010Y-9692648D01*
X10980533Y-9673600D01*
X10999581Y-9645029D01*
X11009105Y-9635505D01*
X11113867Y-9749790D02*
X11094819Y-9740267D01*
X11085295Y-9730743D01*
X11075771Y-9711695D01*
X11075771Y-9702171D01*
X11085295Y-9683124D01*
X11094819Y-9673600D01*
X11113867Y-9664076D01*
X11151962Y-9664076D01*
X11171010Y-9673600D01*
X11180533Y-9683124D01*
X11190057Y-9702171D01*
X11190057Y-9711695D01*
X11180533Y-9730743D01*
X11171010Y-9740267D01*
X11151962Y-9749790D01*
X11113867Y-9749790D01*
X11094819Y-9759314D01*
X11085295Y-9768838D01*
X11075771Y-9787886D01*
X11075771Y-9825981D01*
X11085295Y-9845029D01*
X11094819Y-9854552D01*
X11113867Y-9864076D01*
X11151962Y-9864076D01*
X11171010Y-9854552D01*
X11180533Y-9845029D01*
X11190057Y-9825981D01*
X11190057Y-9787886D01*
X11180533Y-9768838D01*
X11171010Y-9759314D01*
X11151962Y-9749790D01*
X11428152Y-9864076D02*
X11428152Y-9664076D01*
X11513867Y-9864076D02*
X11513867Y-9759314D01*
X11504343Y-9740267D01*
X11485295Y-9730743D01*
X11456724Y-9730743D01*
X11437676Y-9740267D01*
X11428152Y-9749790D01*
X11637676Y-9864076D02*
X11618628Y-9854552D01*
X11609105Y-9845029D01*
X11599581Y-9825981D01*
X11599581Y-9768838D01*
X11609105Y-9749790D01*
X11618628Y-9740267D01*
X11637676Y-9730743D01*
X11666248Y-9730743D01*
X11685295Y-9740267D01*
X11694819Y-9749790D01*
X11704343Y-9768838D01*
X11704343Y-9825981D01*
X11694819Y-9845029D01*
X11685295Y-9854552D01*
X11666248Y-9864076D01*
X11637676Y-9864076D01*
X11818628Y-9864076D02*
X11799581Y-9854552D01*
X11790057Y-9835505D01*
X11790057Y-9664076D01*
X11971009Y-9854552D02*
X11951962Y-9864076D01*
X11913867Y-9864076D01*
X11894819Y-9854552D01*
X11885295Y-9835505D01*
X11885295Y-9759314D01*
X11894819Y-9740267D01*
X11913867Y-9730743D01*
X11951962Y-9730743D01*
X11971009Y-9740267D01*
X11980533Y-9759314D01*
X11980533Y-9778362D01*
X11885295Y-9797410D01*
X12056724Y-9854552D02*
X12075771Y-9864076D01*
X12113867Y-9864076D01*
X12132914Y-9854552D01*
X12142438Y-9835505D01*
X12142438Y-9825981D01*
X12132914Y-9806933D01*
X12113867Y-9797410D01*
X12085295Y-9797410D01*
X12066248Y-9787886D01*
X12056724Y-9768838D01*
X12056724Y-9759314D01*
X12066248Y-9740267D01*
X12085295Y-9730743D01*
X12113867Y-9730743D01*
X12132914Y-9740267D01*
X12209105Y-9940267D02*
X12218628Y-9930743D01*
X12237676Y-9902171D01*
X12247200Y-9883124D01*
X12256724Y-9854552D01*
X12266248Y-9806933D01*
X12266248Y-9768838D01*
X12256724Y-9721219D01*
X12247200Y-9692648D01*
X12237676Y-9673600D01*
X12218628Y-9645029D01*
X12209105Y-9635505D01*
M02*
